%YAML 1.1
%TAG !u! tag:unity3d.com,2011:
--- !u!114 &-2084832456372990432
MonoBehaviour:
  m_ObjectHideFlags: 11
  m_CorrespondingSourceObject: {fileID: 0}
  m_PrefabInstance: {fileID: 0}
  m_PrefabAsset: {fileID: 0}
  m_GameObject: {fileID: 0}
  m_Enabled: 1
  m_EditorHideFlags: 0
  m_Script: {fileID: 11500000, guid: da692e001514ec24dbc4cca1949ff7e8, type: 3}
  m_Name: 
  m_EditorClassIdentifier: 
  version: 11
--- !u!21 &2100000
Material:
  serializedVersion: 6
  m_ObjectHideFlags: 0
  m_CorrespondingSourceObject: {fileID: 0}
  m_PrefabInstance: {fileID: 0}
  m_PrefabAsset: {fileID: 0}
  m_Name: Std_Skin_Arm_Pbr
  m_Shader: {fileID: -6465566751694194690, guid: e4b1192022fa52046868c000971f662c, type: 3}
  m_ShaderKeywords: _DISABLE_SSR_TRANSPARENT
  m_LightmapFlags: 4
  m_EnableInstancingVariants: 0
  m_DoubleSidedGI: 0
  m_CustomRenderQueue: 2225
  stringTagMap:
    MotionVector: User
  disabledShaderPasses:
  - TransparentDepthPrepass
  - TransparentDepthPostpass
  - TransparentBackface
  - RayTracingPrepass
  - MOTIONVECTORS
  m_SavedProperties:
    serializedVersion: 3
    m_TexEnvs:
    - _CFULCMask:
        m_Texture: {fileID: 0}
        m_Scale: {x: 1, y: 1}
        m_Offset: {x: 0, y: 0}
    - _ColorBlendMap:
        m_Texture: {fileID: 0}
        m_Scale: {x: 1, y: 1}
        m_Offset: {x: 0, y: 0}
    - _DiffuseMap:
        m_Texture: {fileID: 2800000, guid: aed6a2092043feb4fa9bd2066635c829, type: 3}
        m_Scale: {x: 1, y: 1}
        m_Offset: {x: 0, y: 0}
    - _EarNeckMask:
        m_Texture: {fileID: 0}
        m_Scale: {x: 1, y: 1}
        m_Offset: {x: 0, y: 0}
    - _EmissionMap:
        m_Texture: {fileID: 0}
        m_Scale: {x: 1, y: 1}
        m_Offset: {x: 0, y: 0}
    - _MNAOMap:
        m_Texture: {fileID: 0}
        m_Scale: {x: 1, y: 1}
        m_Offset: {x: 0, y: 0}
    - _MaskMap:
        m_Texture: {fileID: 2800000, guid: 11160ac38b68418428a208da42b44985, type: 3}
        m_Scale: {x: 1, y: 1}
        m_Offset: {x: 0, y: 0}
    - _MicroNormalMap:
        m_Texture: {fileID: 2800000, guid: e07146551b321ae429133234045b9c6d, type: 3}
        m_Scale: {x: 1, y: 1}
        m_Offset: {x: 0, y: 0}
    - _NormalBlendMap:
        m_Texture: {fileID: 0}
        m_Scale: {x: 1, y: 1}
        m_Offset: {x: 0, y: 0}
    - _NormalMap:
        m_Texture: {fileID: 2800000, guid: 6c7658b892d95704aaa9e1454e9fe855, type: 3}
        m_Scale: {x: 1, y: 1}
        m_Offset: {x: 0, y: 0}
    - _RGBAMask:
        m_Texture: {fileID: 2800000, guid: 926045557240ac24b8cb284ce3d3c9eb, type: 3}
        m_Scale: {x: 1, y: 1}
        m_Offset: {x: 0, y: 0}
    - _SSSMap:
        m_Texture: {fileID: 2800000, guid: 16943558dc6dc3446be2d0cb71468b2e, type: 3}
        m_Scale: {x: 1, y: 1}
        m_Offset: {x: 0, y: 0}
    - _ThicknessMap:
        m_Texture: {fileID: 2800000, guid: 6f5ba066b1110cc469d7e05a0fc4eb1a, type: 3}
        m_Scale: {x: 1, y: 1}
        m_Offset: {x: 0, y: 0}
    - unity_Lightmaps:
        m_Texture: {fileID: 0}
        m_Scale: {x: 1, y: 1}
        m_Offset: {x: 0, y: 0}
    - unity_LightmapsInd:
        m_Texture: {fileID: 0}
        m_Scale: {x: 1, y: 1}
        m_Offset: {x: 0, y: 0}
    - unity_ShadowMasks:
        m_Texture: {fileID: 0}
        m_Scale: {x: 1, y: 1}
        m_Offset: {x: 0, y: 0}
    m_Floats:
    - BOOLEAN_IS_HEAD: 0
    - _AOStrength: 1
    - _AScatterScale: 1
    - _ASmoothnessMod: 0
    - _AddPrecomputedVelocity: 0
    - _AlphaCutoffEnable: 0
    - _AlphaDstBlend: 0
    - _AlphaSrcBlend: 1
    - _AlphaToMask: 0
    - _AlphaToMaskInspectorValue: 0
    - _BScatterScale: 1
    - _BSmoothnessMod: 0
    - _BlendMode: 0
    - _CheekScatterScale: 1
    - _CheekSmoothnessMod: 0
    - _ChinScatterScale: 1
    - _ChinSmoothnessMod: 0
    - _ColorBlendStrength: 0.5
    - _CullMode: 2
    - _CullModeForward: 2
    - _DepthOffsetEnable: 0
    - _DiffusionProfileHash: 3.6477203
    - _DoubleSidedEnable: 0
    - _DoubleSidedNormalMode: 2
    - _DstBlend: 0
    - _EarScatterScale: 1
    - _EarSmoothnessMod: 0
    - _EnableBlendModePreserveSpecularLighting: 1
    - _EnableFogOnTransparent: 1
    - _ForeheadScatterScale: 1
    - _ForeheadSmoothnessMod: 0
    - _GScatterScale: 1
    - _GSmoothnessMod: 0
    - _LipsCavityAO: 2.5
    - _MicroNormalStrength: 0.8
    - _MicroNormalTiling: 25
    - _MicroSmoothnessMod: -0.055
    - _MouthCavityAO: 2.5
    - _NeckScatterScale: 1
    - _NeckSmoothnessMod: 0
    - _NormalBlendStrength: 0.5
    - _NormalStrength: 1
    - _NostrilCavityAO: 2.5
    - _OpaqueCullMode: 2
    - _RScatterScale: 1
    - _RSmoothnessMod: 0
    - _RayTracing: 0
    - _ReceivesSSR: 1
    - _ReceivesSSRTransparent: 0
    - _RefractionModel: 0
    - _RenderQueueType: 1
    - _RequireSplitLighting: 1
    - _SmoothnessMax: 0.8445203
    - _SmoothnessMin: 0
    - _SmoothnessPower: 1
    - _SrcBlend: 1
    - _StencilRef: 4
    - _StencilRefDepth: 8
    - _StencilRefDistortionVec: 4
    - _StencilRefGBuffer: 14
    - _StencilRefMV: 40
    - _StencilWriteMask: 6
    - _StencilWriteMaskDepth: 8
    - _StencilWriteMaskDistortionVec: 4
    - _StencilWriteMaskGBuffer: 14
    - _StencilWriteMaskMV: 40
    - _SubsurfaceScale: 1
    - _SupportDecals: 1
    - _SurfaceType: 0
    - _ThicknessScale: 0.3
    - _TransparentBackfaceEnable: 0
    - _TransparentCullMode: 2
    - _TransparentDepthPostpassEnable: 0
    - _TransparentDepthPrepassEnable: 0
    - _TransparentSortPriority: 0
    - _TransparentWritingMotionVec: 0
    - _TransparentZWrite: 0
    - _UnmaskedScatterScale: 1
    - _UnmaskedSmoothnessMod: 0
    - _UpperLipScatterScale: 1
    - _UpperLipSmoothnessMod: 0
    - _UseShadowThreshold: 0
    - _ZTestDepthEqualForOpaque: 3
    - _ZTestGBuffer: 4
    - _ZTestTransparent: 4
    - _ZWrite: 1
    m_Colors:
    - _DiffusionProfileAsset: {r: 0.000007811633, g: -1.6874267e-36, b: -4.0477928e+21, a: 8.3947815e+11}
    - _DoubleSidedConstants: {r: 1, g: 1, b: -1, a: 0}
    - _EmissionColor: {r: 1, g: 1, b: 1, a: 1}
    - _EmissiveColor: {r: 0, g: 0, b: 0, a: 0}
  m_BuildTextureStacks: []
