%YAML 1.1
%TAG !u! tag:unity3d.com,2011:
--- !u!21 &2100000
Material:
  serializedVersion: 6
  m_ObjectHideFlags: 0
  m_CorrespondingSourceObject: {fileID: 0}
  m_PrefabInstance: {fileID: 0}
  m_PrefabAsset: {fileID: 0}
  m_Name: Std_Cornea_R_Pbr
  m_Shader: {fileID: -6465566751694194690, guid: 48cccd4fafd06264c9dcce2137ba5738, type: 3}
  m_ShaderKeywords: BOOLEAN_ISCORNEA_ON _DISABLE_SSR_TRANSPARENT _ENABLE_FOG_ON_TRANSPARENT
    _REFRACTION_PLANE _SURFACE_TYPE_TRANSPARENT
  m_LightmapFlags: 4
  m_EnableInstancingVariants: 0
  m_DoubleSidedGI: 0
  m_CustomRenderQueue: 2996
  stringTagMap:
    MotionVector: User
    RenderType: Transparent
  disabledShaderPasses:
  - MOTIONVECTORS
  - TransparentDepthPostpass
  - TransparentBackface
  - RayTracingPrepass
  - TransparentDepthPrepass
  m_SavedProperties:
    serializedVersion: 3
    m_TexEnvs:
    - _ColorBlendMap:
        m_Texture: {fileID: 2800000, guid: cf75ad9b36c76864ea1e0a6eab944e4b, type: 3}
        m_Scale: {x: 1, y: 1}
        m_Offset: {x: 0, y: 0}
    - _CorneaDiffuseMap:
        m_Texture: {fileID: 2800000, guid: ddafa9829e9938249bf9c40987fb5129, type: 3}
        m_Scale: {x: 1, y: 1}
        m_Offset: {x: 0, y: 0}
    - _EmissionMap:
        m_Texture: {fileID: 0}
        m_Scale: {x: 1, y: 1}
        m_Offset: {x: 0, y: 0}
    - _MaskMap:
        m_Texture: {fileID: 2800000, guid: c2e8d971c2b8a8640aabac383d6a0f3f, type: 3}
        m_Scale: {x: 1, y: 1}
        m_Offset: {x: 0, y: 0}
    - _ScleraDiffuseMap:
        m_Texture: {fileID: 2800000, guid: d018c6791f5cefd4eb347867023fe5ae, type: 3}
        m_Scale: {x: 1, y: 1}
        m_Offset: {x: 0, y: 0}
    - _ScleraNormalMap:
        m_Texture: {fileID: 2800000, guid: 9822935b6537193488a400e4c5032586, type: 3}
        m_Scale: {x: 1, y: 1}
        m_Offset: {x: 0, y: 0}
    - unity_Lightmaps:
        m_Texture: {fileID: 0}
        m_Scale: {x: 1, y: 1}
        m_Offset: {x: 0, y: 0}
    - unity_LightmapsInd:
        m_Texture: {fileID: 0}
        m_Scale: {x: 1, y: 1}
        m_Offset: {x: 0, y: 0}
    - unity_ShadowMasks:
        m_Texture: {fileID: 0}
        m_Scale: {x: 1, y: 1}
        m_Offset: {x: 0, y: 0}
    m_Floats:
    - BOOLEAN_ISCORNEA: 1
    - _AOStrength: 1
    - _AddPrecomputedVelocity: 0
    - _AlphaCutoffEnable: 0
    - _AlphaDstBlend: 10
    - _AlphaSrcBlend: 1
    - _AlphaToMask: 0
    - _AlphaToMaskInspectorValue: 1
    - _BlendMode: 0
    - _ColorBlendStrength: 0
    - _CorneaSmoothness: 1
    - _CullMode: 2
    - _CullModeForward: 2
    - _DepthOffsetEnable: 0
    - _DepthRadius: 0.8
    - _DoubleSidedEnable: 0
    - _DoubleSidedNormalMode: 2
    - _DstBlend: 10
    - _EnableBlendModePreserveSpecularLighting: 1
    - _EnableFogOnTransparent: 1
    - _IOR: 1.4
    - _IrisBrightness: 1.1
    - _IrisDepth: 0.0036000002
    - _IrisHue: 0.5
    - _IrisRadius: 0.14062501
    - _IrisSaturation: 1
    - _IrisScale: 0.93750006
    - _IrisSmoothness: 0
    - _IsLeftEye: 0
    - _LimbusDarkRadius: 0.0995
    - _LimbusDarkWidth: 0.025
    - _LimbusWidth: 0.04
    - _OpaqueCullMode: 2
    - _PupilScale: 0.75920004
    - _RayTracing: 0
    - _ReceivesSSR: 1
    - _ReceivesSSRTransparent: 0
    - _RefractionModel: 1
    - _RefractionThickness: 0.01
    - _RenderQueueType: 4
    - _RequireSplitLighting: 0
    - _ScleraBrightness: 0.65
    - _ScleraHue: 0.5
    - _ScleraNormalStrength: 0.100000024
    - _ScleraNormalTiling: 2
    - _ScleraSaturation: 1
    - _ScleraScale: 0.88
    - _ScleraSmoothness: 0.8
    - _ShadowHardness: 0.5
    - _ShadowRadius: 0.3
    - _SrcBlend: 1
    - _StencilRef: 0
    - _StencilRefDepth: 0
    - _StencilRefDistortionVec: 4
    - _StencilRefGBuffer: 2
    - _StencilRefMV: 32
    - _StencilWriteMask: 6
    - _StencilWriteMaskDepth: 8
    - _StencilWriteMaskDistortionVec: 4
    - _StencilWriteMaskGBuffer: 14
    - _StencilWriteMaskMV: 40
    - _SupportDecals: 1
    - _SurfaceType: 1
    - _TransparentBackfaceEnable: 0
    - _TransparentCullMode: 2
    - _TransparentDepthPostpassEnable: 0
    - _TransparentDepthPrepassEnable: 0
    - _TransparentSortPriority: -4
    - _TransparentWritingMotionVec: 0
    - _TransparentZWrite: 0
    - _UseShadowThreshold: 1
    - _ZTestDepthEqualForOpaque: 4
    - _ZTestGBuffer: 4
    - _ZTestTransparent: 4
    - _ZWrite: 0
    m_Colors:
    - _CornerShadowColor: {r: 1, g: 0.7372, b: 0.70196, a: 1}
    - _DoubleSidedConstants: {r: 1, g: 1, b: -1, a: 0}
    - _EmissionColor: {r: 1, g: 1, b: 1, a: 1}
    - _EmissiveColor: {r: 0, g: 0, b: 0, a: 0}
    - _LimbusColor: {r: 0, g: 0, b: 0, a: 0}
  m_BuildTextureStacks: []
--- !u!114 &447045894498218458
MonoBehaviour:
  m_ObjectHideFlags: 11
  m_CorrespondingSourceObject: {fileID: 0}
  m_PrefabInstance: {fileID: 0}
  m_PrefabAsset: {fileID: 0}
  m_GameObject: {fileID: 0}
  m_Enabled: 1
  m_EditorHideFlags: 0
  m_Script: {fileID: 11500000, guid: da692e001514ec24dbc4cca1949ff7e8, type: 3}
  m_Name: 
  m_EditorClassIdentifier: 
  version: 11
